<svg width="106" height="26" viewBox="0 0 106 26" fill="none" xmlns="http://www.w3.org/2000/svg">
<g clip-path="url(#clip0_636_17085)">
<path d="M96.7536 17.8454C92.0942 17.8454 88.3035 14.06 88.3035 9.40708V0.96875H105.203V9.40708C105.203 14.0594 101.412 17.8454 96.7536 17.8454ZM89.8396 2.50299V9.40708C89.8396 13.2135 92.9408 16.3112 96.7536 16.3112C100.565 16.3112 103.667 13.214 103.667 9.40708V2.50299H89.8396Z" fill="white"/>
<path d="M100.594 6.08203H92.9126V7.61627H93.9625L93.4307 11.8676H94.979L95.5116 7.61627H97.9952L98.5278 11.8676H100.076L99.5443 7.61627H100.594V6.08203Z" fill="white"/>
<path d="M9.67425 3.50442C14.2069 3.50442 16.6246 5.61657 16.6246 8.63391C16.6246 11.0483 14.8112 12.8587 12.394 13.523V13.5834C16.1713 14.5188 17.531 16.7214 17.531 19.0453C17.531 22.3644 15.1134 24.6279 10.5812 24.6279H0.609375V24.0244C2.42275 24.0244 2.42275 24.0244 2.42275 22.0626V6.06916C2.42275 4.10738 2.42275 4.10738 0.609375 4.10738V3.50391H9.67425V3.50442ZM7.86136 13.4622C10.5812 13.4622 11.6381 11.6518 11.6381 8.78475C11.6381 6.21952 10.5806 4.10738 8.76779 4.10738H7.25707V13.4622H7.86136ZM7.25707 14.0657V24.0244H9.3721C11.7892 24.0244 12.5451 21.6101 12.5451 18.8944C12.5451 16.1788 11.1855 14.0662 8.46564 14.0662H7.25707V14.0657Z" fill="white"/>
<path d="M18.7375 17.2353C18.7375 12.1053 22.9681 9.23828 26.7449 9.23828C30.2201 9.23828 33.3624 10.7469 32.4559 15.8769H23.512C23.512 19.9509 25.8385 21.4595 28.105 21.4595C30.8249 21.4595 32.0335 19.9509 32.6378 18.8943H32.9398C32.3356 21.9116 30.2201 24.9295 26.4433 24.9295C21.4574 24.9299 18.7375 21.3092 18.7375 17.2353ZM23.512 15.2734H27.954C28.4676 13.2217 28.8906 9.84169 26.5943 9.84169C24.8716 9.84169 23.6328 11.4414 23.512 15.2734Z" fill="white"/>
<path d="M45.3272 13.4626C45.3272 12.1048 44.4207 11.6522 43.5144 11.6522C42.5777 11.6522 41.5504 12.1048 40.4929 13.01V22.0625C40.4929 24.0243 40.4929 24.0243 42.3057 24.0243V24.6278H33.8447V24.0243C35.6576 24.0243 35.6576 24.0243 35.6576 22.0625V12.5574C35.6576 11.0487 35.6576 11.0487 34.1468 11.0487V10.5961L40.3413 9.23828H40.583L40.4924 12.4065H40.5528C41.701 10.4453 43.8769 9.23828 46.0825 9.23828C48.107 9.23828 50.162 10.4453 50.162 13.7649V22.0636C50.162 24.0253 50.162 24.0253 51.9749 24.0253V24.6288H44.1186V24.0253C45.3272 24.0253 45.3272 24.0253 45.3272 22.0636V13.4626Z" fill="white"/>
<path d="M61.9447 21.46C64.6645 21.46 65.873 19.9514 66.4773 18.8948H66.7799C66.1752 21.9121 64.0602 24.9299 60.2829 24.9299C55.2969 24.9299 52.5776 21.3092 52.5776 17.2353C52.5776 12.1053 56.8082 9.23828 60.585 9.23828C64.3623 9.23828 66.3569 11.0793 66.3569 13.0104C66.3569 14.066 65.8736 15.1226 64.0606 15.1226C62.55 15.1226 62.2171 14.1872 62.2473 13.5536C62.3989 11.3504 62.2473 9.84169 60.4344 9.84169C58.3194 9.84169 57.3521 12.6484 57.3521 16.1485C57.3521 20.1022 59.6786 21.46 61.9447 21.46Z" fill="white"/>
<path d="M79.1674 13.463C79.1674 12.1051 78.2608 11.6526 77.3543 11.6526C76.4176 11.6526 75.3903 12.1051 74.3328 13.0104V22.063C74.3328 24.0247 74.3328 24.0247 76.1462 24.0247V24.6282H67.6851V24.0247C69.4984 24.0247 69.4984 24.0247 69.4984 22.063V4.71217C69.4984 3.20299 69.4984 3.20299 67.9877 3.20299V2.75038L74.0915 1.39258H74.3332V12.4069H74.3937C75.5419 10.4456 77.7169 9.23871 79.9237 9.23871C81.9484 9.23871 84.0027 10.4456 84.0027 13.7652V22.0639C84.0027 24.0258 84.0027 24.0258 85.8165 24.0258V24.6292H77.9589V24.0258C79.1674 24.0258 79.1674 24.0258 79.1674 22.0639V13.463Z" fill="white"/>
</g>
<defs>
<clipPath id="clip0_636_17085">
<rect width="104.688" height="25" fill="white" transform="translate(0.609375 0.517578)"/>
</clipPath>
</defs>
</svg>
